<?xml version="1.0" standalone="no"?>
<!DOCTYPE svg PUBLIC "-//W3C//DTD SVG 20010904//EN"
 "http://www.w3.org/TR/2001/REC-SVG-20010904/DTD/svg10.dtd">
<svg version="1.0" xmlns="http://www.w3.org/2000/svg"
 width="128.000000pt" height="128.000000pt" viewBox="0 0 128.000000 128.000000"
 preserveAspectRatio="xMidYMid meet">

<g transform="translate(0.000000,128.000000) scale(0.100000,-0.100000)"
fill="#000000" stroke="none">
<path d="M634 1193 c-20 -43 -40 -88 -45 -100 -8 -23 -9 -23 -291 -25 l-283
-3 0 -25 c0 -18 6 -26 22 -28 28 -4 25 19 67 -522 l35 -435 26 -23 c22 -18 37
-22 74 -20 42 3 46 5 46 28 0 22 -5 25 -42 28 -39 3 -43 6 -47 35 -3 18 -19
210 -36 427 -16 217 -32 414 -36 437 l-5 43 348 2 348 3 0 25 c0 24 -2 25 -82
28 -46 2 -83 5 -83 8 0 3 16 40 36 84 38 82 39 110 4 110 -16 0 -29 -18 -56
-77z"/>
<path d="M670 874 c-191 -37 -319 -157 -328 -309 -5 -73 14 -125 54 -152 26
-16 62 -18 412 -23 352 -5 386 -6 396 -23 21 -32 -4 -51 -75 -57 -75 -6 -89
-13 -149 -74 -24 -25 -51 -46 -59 -46 -8 0 -40 25 -71 54 -32 30 -68 58 -81
61 -13 3 -114 4 -224 3 l-200 -3 -3 -97 c-3 -112 9 -147 61 -175 29 -16 66
-18 367 -18 301 0 338 2 367 18 38 20 65 67 61 105 -2 21 -8 27 -28 27 -20 0
-26 -6 -28 -26 -2 -15 -12 -35 -24 -45 -19 -18 -43 -19 -348 -19 -389 0 -370
-5 -370 107 l0 68 177 0 176 0 57 -54 c91 -87 129 -87 220 0 55 53 58 54 114
54 53 0 61 3 92 34 25 25 34 43 34 66 0 23 -9 42 -34 66 l-34 34 -379 0 -380
0 -21 23 c-17 18 -22 36 -22 73 1 176 208 301 444 267 163 -23 273 -112 294
-236 7 -36 11 -42 32 -42 23 0 25 3 24 46 -4 110 -103 222 -241 270 -57 20
-226 34 -283 23z"/>
</g>
</svg>
